merge_conflict
Denis & Thorin were here
ok, tjuuuusss!!!
wfpwjef
         _____
     _-~~     ~~-_//
   /~             ~\
  |              _  |_
 |         _--~~~ )~~ )___
\|        /   ___   _-~   ~-_
\          _-~   ~-_         \
|         /         \         |
|        |           |     (O  |
 |      |             |        |
 |      |   O)        |       |
 /|      |           |       /
 / \ _--_ \         /-_   _-~)
   /~    \ ~-_   _-~   ~~~__/
  |   |\  ~-_ ~~~ _-~~---~  \
  |   | |    ~--~~  / \      ~-_
   |   \ |                      ~-_
    \   ~-|                        ~~--__ _-~~-,
     ~-_   |                             /     |
        ~~--|                                 /
          |  |                               /
          |   |              _            _-~
          |  /~~--_   __---~~          _-~
          |  \                   __--~~
          |  |~~--__     ___---~~
          |  |      ~~~~~
          |  |